<?xml version="1.0" encoding="utf-8"?>
<!-- Generator: Adobe Illustrator 17.0.0, SVG Export Plug-In . SVG Version: 6.00 Build 0)  -->
<!DOCTYPE svg PUBLIC "-//W3C//DTD SVG 1.1//EN" "http://www.w3.org/Graphics/SVG/1.1/DTD/svg11.dtd">
<svg version="1.1" id="Camada_1" xmlns="http://www.w3.org/2000/svg" xmlns:xlink="http://www.w3.org/1999/xlink" x="0px" y="0px"
	 width="135.313px" height="135.313px" viewBox="-23.155 -413.833 135.313 135.313"
	 enable-background="new -23.155 -413.833 135.313 135.313" xml:space="preserve">
<polygon fill="#FFFFFF" points="16.891,-393.998 20.402,-397.557 72.112,-346.561 68.601,-343.001 68.596,-343.006 21.051,-294.796 
	17.491,-298.307 65.036,-346.517 "/>
</svg>
